Lecture Notes for Statistics for Biology FS2020
…
Visualisation is a great place to start with R programming, because the payoff is so clear: you get to make elegant and informative plots that help you understand data. In data visualisation youll dive into visualisation, learning the basic structure of a ggplot2 plot, and powerful techniques for turning data into plots.

This chapter will teach you how to visualise your data using ggplot2. R has several systems for making graphs, but ggplot2 is one of the most elegant and most versatile. ggplot2 implements the grammar of graphics, a coherent system for describing and building graphs. With ggplot2, you can do more faster by learning one system and applying it in many places.

If youd like to learn more about the theoretical underpinnings of ggplot2 before you start, Id recommend reading The Layered Grammar of Graphics, http://vita.had.co.nz/papers/layered-grammar.pdf.

The MPG dataset

Lets use our first graph to answer a question: Do cars with big engines use more fuel than cars with small engines? You probably already have an answer, but try to make your answer precise. What does the relationship between engine size and fuel efficiency look like? Is it positive? Negative? Linear? Nonlinear?

You can test your answer with the mpg data frame found in ggplot2 (aka ggplot2::mpg). A data frame is a rectangular collection of variables (in the columns) and observations (in the rows). mpg contains observations collected by the US Environmental Protection Agency on 38 models of car.

mpg

## # A tibble: 234 x 11
##    manufacturer model displ  year   cyl trans drv     cty   hwy fl    cla~
##    <chr>        <chr> <dbl> <int> <int> <chr> <chr> <int> <int> <chr> <ch>
##  1 audi         a4      1.8  1999     4 auto~ f        18    29 p     com~
##  2 audi         a4      1.8  1999     4 manu~ f        21    29 p     com~
##  3 audi         a4      2    2008     4 manu~ f        20    31 p     com~
##  4 audi         a4      2    2008     4 auto~ f        21    30 p     com~
##  5 audi         a4      2.8  1999     6 auto~ f        16    26 p     com~
##  6 audi         a4      2.8  1999     6 manu~ f        18    26 p     com~
##  7 audi         a4      3.1  2008     6 auto~ f        18    27 p     com~
##  8 audi         a4 q~   1.8  1999     4 manu~ 4        18    26 p     com~
##  9 audi         a4 q~   1.8  1999     4 auto~ 4        16    25 p     com~
## 10 audi         a4 q~   2    2008     4 manu~ 4        20    28 p     com~
## # ... with 224 more rows
…
